…
    ## # A tibble: 3 x 6
    ##   country cont    year   lex      pop gdppc
    ##   <fct>   <fct>  <int> <dbl>    <int> <dbl>
    ## 1 Angola  Africa  1997  41.0  9875024 2277.
    ## 2 Angola  Africa  2002  41.0 10866106 2773.
    ## 3 Angola  Africa  2007  42.7 12420476 4797.

``` r
filter(df, cont!="Americas", year <= 1995 | year ==2007) # filtering for rows where the continent is not Americas and the year is less than or equal to 1995 or  year is 2007
```

    ## # A tibble: 1,170 x 6
    ##    country     cont   year   lex      pop gdppc
    ##    <fct>       <fct> <int> <dbl>    <int> <dbl>
    ##  1 Afghanistan Asia   1952  28.8  8425333  779.
    ##  2 Afghanistan Asia   1957  30.3  9240934  821.
    ##  3 Afghanistan Asia   1962  32.0 10267083  853.
    ##  4 Afghanistan Asia   1967  34.0 11537966  836.
    ##  5 Afghanistan Asia   1972  36.1 13079460  740.
    ##  6 Afghanistan Asia   1977  38.4 14880372  786.
    ##  7 Afghanistan Asia   1982  39.9 12881816  978.
    ##  8 Afghanistan Asia   1987  40.8 13867957  852.
    ##  9 Afghanistan Asia   1992  41.7 16317921  649.
    ## 10 Afghanistan Asia   2007  43.8 31889923  975.
    ## # ... with 1,160 more rows

``` r
df %>% filter(country=="China" | country=="Sao Tome and Principe")#filter for rows where the country is either Chaina or Sao Tome and Principe
```

    ## # A tibble: 24 x 6
    ##    country cont   year   lex        pop gdppc
    ##    <fct>   <fct> <int> <dbl>      <int> <dbl>
    ##  1 China   Asia   1952  44    556263527  400.
    ##  2 China   Asia   1957  50.5  637408000  576.
    ##  3 China   Asia   1962  44.5  665770000  488.
    ##  4 China   Asia   1967  58.4  754550000  613.
    ##  5 China   Asia   1972  63.1  862030000  677.
    ##  6 China   Asia   1977  64.0  943455000  741.
    ##  7 China   Asia   1982  65.5 1000281000  962.
    ##  8 China   Asia   1987  67.3 1084035000 1379.
    ##  9 China   Asia   1992  68.7 1164970000 1656.
    ## 10 China   Asia   1997  70.4 1230075000 2289.
    ## # ... with 14 more rows
…
